Fish Recruitment Analysis
…
3.2.1 1.0 Total abundance

fish.sum <- fishdata %>%
  group_by(Treatment, Replicate, Date) %>%
  summarise(abundance = sum(count)) %>%
  ungroup() %>%
  group_by(Treatment, Replicate) %>%
  summarise(
    mean.abnd = mean(abundance),
    se.abnd = sd(abundance) / sqrt(length(abundance))
  )

fish.sum

# A tibble: 25 × 4
# Groups:   Treatment [5]
   Treatment Replicate mean.abnd se.abnd
   <fct>     <fct>         <dbl>   <dbl>
 1 BH        1              5.72   0.620
 2 BH        2              8.67   0.886
 3 BH        3              7.61   0.595
 4 BH        4              7.94   0.574
 5 BH        5             11.9    0.740
 6 BQ        1              5.22   0.765
 7 BQ        2              5.78   0.468
 8 BQ        3              5.78   0.432
 9 BQ        4              3.61   0.444
10 BQ        5              4.67   0.530
# … with 15 more rows
…
